\relax 
\providecommand\hyper@newdestlabel[2]{}
\providecommand\HyperFirstAtBeginDocument{\AtBeginDocument}
\HyperFirstAtBeginDocument{\ifx\hyper@anchor\@undefined
\global\let\oldcontentsline\contentsline
\gdef\contentsline#1#2#3#4{\oldcontentsline{#1}{#2}{#3}}
\global\let\oldnewlabel\newlabel
\gdef\newlabel#1#2{\newlabelxx{#1}#2}
\gdef\newlabelxx#1#2#3#4#5#6{\oldnewlabel{#1}{{#2}{#3}}}
\AtEndDocument{\ifx\hyper@anchor\@undefined
\let\contentsline\oldcontentsline
\let\newlabel\oldnewlabel
\fi}
\fi}
\global\let\hyper@last\relax 
\gdef\HyperFirstAtBeginDocument#1{#1}
\providecommand*\HyPL@Entry[1]{}
\HyPL@Entry{0<</P(1)>>}
\@writefile{toc}{\beamer@endinputifotherversion {3.36pt}}
\@writefile{nav}{\beamer@endinputifotherversion {3.36pt}}
\pgfsyspdfmark {pgfid7}{7515458}{140145020}
\@writefile{nav}{\headcommand {\beamer@subsectionentry {0}{0}{1}{1}{Characterization Techniques for Semiconductor Materials}}\headcommand {\beamer@subsectionpages {1}{0}}}
\pgfsyspdfmark {pgfid13}{7515458}{27045631}
\pgfsyspdfmark {pgfid19}{91432509}{192491424}
\pgfsyspdfmark {pgfid25}{91432509}{154175490}
\pgfsyspdfmark {pgfid27}{91432509}{69119111}
\pgfsyspdfmark {pgfid28}{91432509}{48877914}
\pgfsyspdfmark {pgfid29}{91432509}{25439066}
\@writefile{nav}{\headcommand {\slideentry {0}{1}{0}{1/1}{}{0}}}
\@writefile{nav}{\headcommand {\beamer@framepages {1}{1}}}
\@writefile{nav}{\headcommand {\beamer@partpages {1}{1}}}
\@writefile{nav}{\headcommand {\beamer@subsectionpages {1}{1}}}
\@writefile{nav}{\headcommand {\beamer@sectionpages {1}{1}}}
\@writefile{nav}{\headcommand {\beamer@documentpages {1}}}
\@writefile{nav}{\headcommand {\def \inserttotalframenumber {1}}}
